<?xml version="1.0" encoding="utf-8"?>
<!-- Generated by IcoMoon.io -->
<!DOCTYPE svg PUBLIC "-//W3C//DTD SVG 1.1//EN" "http://www.w3.org/Graphics/SVG/1.1/DTD/svg11.dtd">
<svg version="1.1" xmlns="http://www.w3.org/2000/svg" xmlns:xlink="http://www.w3.org/1999/xlink" width="32" height="32" viewBox="0 0 32 32">
<path fill="rgb(187, 189, 191)" d="M29.28 7.093l-0.48 0.16-2.56 0.213-0.693 1.173-0.533-0.16-2.027-1.813-0.32-0.96-0.373-1.013-1.28-1.12-1.493-0.32-0.053 0.693 1.493 1.44 0.747 0.853-0.8 0.427-0.64-0.213-1.013-0.427 0.053-0.8-1.28-0.533-0.427 1.867-1.333 0.32 0.107 1.067 1.707 0.32 0.267-1.653 1.387 0.213 0.64 0.373h1.067l0.747 1.44 1.92 1.92-0.16 0.747-1.547-0.213-2.667 1.333-1.92 2.293-0.267 1.013h-0.693l-1.28-0.587-1.227 0.587 0.32 1.333 0.533-0.64 0.96-0.053-0.053 1.173 0.8 0.213 0.8 0.853 1.28-0.373 1.493 0.213 1.707 0.48 0.853 0.107 1.44 1.653 2.773 1.653-1.813 3.413-1.92 0.907-0.747 1.973-2.72 1.813-0.267 1.067c7.040-1.707 12.267-8 12.267-15.52-0.053-3.307-1.067-6.347-2.773-8.907v0z"></path>
<path fill="rgb(187, 189, 191)" d="M17.813 24.373l-1.173-2.133 1.067-2.24-1.067-0.32-1.173-1.227-2.667-0.587-0.907-1.867v1.12h-0.373l-2.293-3.093v-2.56l-1.707-2.72-2.667 0.48h-1.813l-0.907-0.587 1.173-0.907-1.173 0.267c-1.387 2.347-2.187 5.12-2.187 8.053 0 8.853 7.147 16 16 16 0.693 0 1.333-0.053 2.027-0.16l-0.16-1.92c0 0 0.747-2.88 0.747-2.987 0-0.16-0.747-2.613-0.747-2.613v0z"></path>
<path fill="rgb(187, 189, 191)" d="M5.92 5.173l2.827-0.373 1.333-0.747 1.493 0.427 2.347-0.16 0.8-1.28 1.173 0.213 2.88-0.267 0.8-0.853 1.12-0.747 1.547 0.213 0.587-0.107c-2.080-0.96-4.373-1.547-6.827-1.547-4.96 0-9.387 2.24-12.32 5.813v0l2.24-0.587zM16.693 1.6l1.653-0.907 1.067 0.587-1.547 1.173-1.44 0.16-0.64-0.427 0.907-0.587zM11.84 1.707l0.747 0.32 0.96-0.32 0.533 0.907-2.187 0.587-1.067-0.64c-0.053 0 0.96-0.64 1.013-0.853v0z"></path>
</svg>
