<?xml version="1.0" encoding="utf-8"?>
<!-- Generator: Adobe Illustrator 22.0.1, SVG Export Plug-In . SVG Version: 6.00 Build 0)  -->
<svg version="1.1" xmlns="http://www.w3.org/2000/svg" xmlns:xlink="http://www.w3.org/1999/xlink" x="0px" y="0px"
	 viewBox="0 0 100 100" style="enable-background:new 0 0 100 100;" xml:space="preserve">
<style type="text/css">
	.st0{display:none;}
	.st1{display:inline;}
	.st2{fill:#D26288;}
	.st3{fill:none;stroke:#FFFFFF;stroke-width:2.4064;stroke-miterlimit:10;}
	.st4{fill:#FFFFFF;}
	.st5{fill:#D63330;}
	.st6{display:inline;fill:none;stroke:#000000;stroke-width:3.4771;stroke-linecap:round;stroke-miterlimit:10;}
	.st7{fill:#D63330;stroke:#D63330;stroke-width:3;stroke-miterlimit:10;}
	.st8{display:inline;stroke:#000000;stroke-width:3.4771;stroke-linecap:round;stroke-linejoin:round;stroke-miterlimit:10;}
	.st9{fill:none;stroke:#000000;stroke-width:3.4771;stroke-linecap:round;stroke-miterlimit:10;}
	
		.st10{display:inline;fill:none;stroke:#FFFFFF;stroke-width:3.4771;stroke-linecap:round;stroke-linejoin:round;stroke-miterlimit:10;}
</style>
<g id="Layer_1">
</g>
<g id="Layer_2">
	<g>
		<g>
			<g>
				<path class="st5" d="M53.1,0.2c-6.4,0-11.6,5.2-11.6,11.6s5.2,11.6,11.6,11.6s11.6-5.2,11.6-11.6S59.5,0.2,53.1,0.2z"/>
			</g>
		</g>
		<g>
			<g>
				<path class="st5" d="M93.7,44.1V47c0,3.6-3.1,6.4-7.1,5.6c-3.9-13.3-16.1-23-30.6-23H36.6c-0.8,0-1.6-0.3-2.1-0.9
					c-2.7-3.1-6.7-4.9-10.8-4.9H15c-1.9,0-3.3,1.8-2.8,3.6l2.9,12.1c-2.1,2.2-3.9,4.8-5.3,7.5c-5.8,0-9.3,4.1-9.3,8.7v8.6
					c0,5.5,4.3,7.5,8.8,10.7c1.8,3.8,4.3,7.2,7.5,10.1c0.4,0.4,1.1,1.2,1.1,2.3v6.8c0,2.7,2.2,4.9,4.9,4.9h10.4
					c2.7,0,4.9-1.8,4.9-5.8H56c0,4,2.2,5.8,4.9,5.8h10.4c2.7,0,4.9-2.2,4.9-4.9c0-4.4-0.5-7.4,2.6-10.5c5.6-5.8,9-13.6,9-22.3
					c0-1-0.1-2-0.1-2.9c0.1,0,0.1,0,0.2,0c6.4,0,11.6-5.2,11.6-11.6v-2.9C99.5,40.3,93.7,40.3,93.7,44.1z M20.8,55.7
					c-1.6,0-2.9-1.3-2.9-2.9c0-1.6,1.3-2.9,2.9-2.9s2.9,1.3,2.9,2.9C23.7,54.4,22.4,55.7,20.8,55.7z M56,47H42.8
					c-3.8,0-3.8-5.8,0-5.8H56C59.8,41.2,59.8,47,56,47z"/>
			</g>
		</g>
	</g>
</g>
</svg>
